source_language,target_language,price_per_minute,price_per_hour,minimum_bill,shan_certification_cost,minutes_in_a_day,hours_in_a_day,strength
Albanian,English,6,360,18,4,10,0.17,3
Arabic,English,4,240,12,3,30,0.5,9
Assamese,English,2.5,150,10,2,20,0.33,7
Bengali,English,2.5,150,10,2,25,0.42,8
Bosnian,English,4,240,12,3,18,0.3,5
Burmese,English,3.5,210,10,2,20,0.33,8
Chinese S (Mandarin),English,3,180,10,2,20,0.33,8
Chinese T (Cantonese),English,3,180,10,2,20,0.33,8
Danish,English,5,300,15,3,20,0.33,7
Dutch,English,5,300,15,3,15,0.25,5
English,Albanian,6,360,18,4,10,0.17,3
English,Arabic,4,240,12,3,30,0.5,9
English,Assamese,2.5,150,10,2,20,0.33,7
English,Bengali,2.5,150,10,2,25,0.42,8
English,Bosnian,4,240,12,3,18,0.3,5
English,Burmese,3.5,210,10,3,25,0.42,8
English,Catalan,6,360,18,3,18,0.3,6
English,Chinese S (Mandarin),3,180,10,2,20,0.33,8
English,Chinese T (Cantonese),3,180,10,2,20,0.33,8
English,Czech,5,300,15,3,15,0.25,4
English,Danish,5,300,15,3,20,0.33,7
English,Dutch,5,300,15,3,15,0.25,5
English,English,2.5,150,10,2,30,0.5,9
English,Estonian,6,360,18,3,15,0.25,5
English,Flemish,8,480,25,4,15,0.25,5
English,French,3,180,10,2,20,0.33,8
English,German,3,180,10,2,20,0.33,8
English,Greek,4,240,12,2,15,0.25,5
English,Gujarati,2.5,150,10,2,20,0.33,8
English,Hausa,8,480,25,4,10,0.17,3
English,Hindi,2.5,150,10,2,25,0.42,8
English,Indonesian,3,180,10,2,25,0.42,8
English,Italian,3.5,210,10,2,25,0.42,8
English,Japanese,3.5,210,10,2,25,0.42,8
English,Kannada,2.5,150,10,2,25,0.42,8
English,Kashmiri,3,180,10,2,20,0.33,7
English,Latvian,6,360,18,4,15,0.25,4
English,Macedonian,6,360,18,4,15,0.25,5
English,Malayalam,3,180,10,2,25,0.42,8
English,Marathi,2.5,150,10,2,25,0.42,8
English,Oriya,2.5,150,10,2,25,0.42,8
English,Polish,6,360,18,3,20,0.33,7
English,Portuguese,5,300,15,3,15,0.25,5
English,Punjabi,2.5,150,10,2,25,0.42,8
English,Romanian,6,360,18,3,15,0.25,5
English,Russian,5,300,15,3,25,0.42,8
English,Serbian,7,420,20,4,15,0.25,4
English,Slovenian,7,420,20,4,15,0.25,4
English,Spanish,3,180,10,2,25,0.42,8
English,Telugu,3,180,10,2,25,0.42,8
English,Thai,3.5,210,10,2,25,0.42,8
English,Ukrainian,5,300,15,3,15,0.25,5
English,Urdu,3.5,210,10,2,25,0.42,8
English,Wolof,10,600,30,5,10,0.17,3
Estonian,English,5,300,15,5,15,0.25,5
Flemish,English,8,480,25,4,15,0.25,5
French,English,3,180,10,2,25,0.42,8
French,Polish,6,360,18,3,20,0.33,7
German,English,3,180,10,2,25,0.42,8
Greek,English,4,240,12,2,15,0.25,5
Gujarati,English,2.5,150,10,2,25,0.42,8
Hausa,Hausa,6,360,18,3,10,0.17,3
Hindi,English,2.5,150,10,2,30,0.5,9
Indonesian,English,3.5,210,10,2,25,0.42,8
Italian,English,3.5,210,10,2,25,0.42,8
Japanese,English,3.5,210,10,2,25,0.42,8
Kannada,English,2.5,150,10,2,25,0.42,8
Kashmiri,English,3,180,10,2,20,0.33,7
Latvian,English,6,360,18,3,15,0.25,4
Macedonian,English,6,360,18,3,15,0.25,5
Malayalam,English,3,180,10,2,25,0.42,8
Marathi,English,3,180,10,2,20,0.33,7
Oriya,English,2.5,150,10,2,25,0.42,8
Polish,English,5,300,15,3,20,0.33,7
Portuguese,English,5,300,15,3,15,0.25,5
Punjabi,English,2.5,150,10,2,25,0.42,8
Romanian,English,6,360,18,3,15,0.25,5
Russian,English,5,300,15,3,25,0.42,8
Serbian,English,7,420,20,4,15,0.25,4
Slovenian,English,7,420,20,4,15,0.25,4
Spanish,English,3,180,10,2,25,0.42,8
Tamil,English,3,180,10,2,25,0.42,8
Telugu,English,3,180,10,2,25,0.42,8
Thai,English,3.5,210,10,2,25,0.42,8
Ukrainian,English,6,360,18,3,15,0.25,5
Urdu,English,3,180,10,2,25,0.42,8
Wolof,English,10,600,30,5,10,0.17,3
Wolof,Wolof,8,480,25,4,10,0.17,3
